digraph host_service {
    graph[compound=true]
    host_service -> html_page;
    host_service -> guess_form [shape=box,arrowhead=box];
    {rank = same; host_service; guess_form; send_guess_service}
    guess_form -> send_guess_service [arrowhead=dot];
}
